<?xml version="1.0"?>
<!-- Tactile Sensor Generique -->
<robot xmlns:xacro="http://www.ros.org/wiki/xacro">

<!-- Import all Gazebo-customization elements -->
    <xacro:include filename="$(find sr_description)/hand/xacro/tactile_sensor/materials.xacro" />
    <xacro:include filename="$(find sr_description)/hand/xacro/tactile_sensor/weiss.gazebo.xacro" />

  
  <!-- Constants for sensor dimensions -->
  <xacro:property name="texel_length" value="0.0034" /> <!-- texel resolution -->
  <xacro:property name="texel_width" value="0.0034" /> <!-- texel resolution -->
  <xacro:property name="texel_depth" value="0.00285" />
  <xacro:property name="rows" value="14" />
  <xacro:property name="columns" value="6" />
  <xacro:property name="length" value="${texel_length*columns}" /> <!--0.0244-->
  <xacro:property name="width" value="${texel_width*rows}" /><!--0.0514-->
  <xacro:property name="depth" value="0.0057" />
  <xacro:property name="tactile_rate" value="1000" />
  <xacro:property name="mass" value="0.03" /> <!--30g-->
  <xacro:property name="kp" value="10e8" /><!--100000000-->
  <xacro:property name="kd" value="1" /> 
  <xacro:property name="mu1" value="1.4" />
  <xacro:property name="mu2" value="1.4" />
  <xacro:property name="min_depth" value="0.001" /> 
  <xacro:property name="max_vel" value="10" />



<!--MACROS-->
	<xacro:macro name="texel_collision" params="name_texel *origin">
		<collision name="${name_texel}">
		  <xacro:insert_block name="origin" />
			<geometry>
		  	<box size="${texel_length} ${texel_width}  ${texel_depth}"/>
			</geometry>
		 </collision>	
	</xacro:macro>

   <xacro:macro name="texel_rows" params="nombre_texel rows_origin">
	 	<xacro:texel_collision name_texel="texel_${nombre_texel}"> <!--texel1-->
			<origin xyz="${-(texel_length*2.5)} ${rows_origin} ${depth-(texel_depth*0.5)}" rpy="0 0 0" />
		</xacro:texel_collision>
	 	<xacro:texel_collision name_texel="texel_${nombre_texel+1}"> <!--texel2-->
			<origin xyz="${-(texel_length*1.5)} ${rows_origin} ${depth-(texel_depth*0.5)}" rpy="0 0 0" />
		</xacro:texel_collision>
	 	<xacro:texel_collision name_texel="texel_${nombre_texel+2}"> <!--texel3-->
			<origin xyz="${-(texel_length*0.5)} ${rows_origin} ${depth-(texel_depth*0.5)}" rpy="0 0 0" />
		</xacro:texel_collision>
		<xacro:texel_collision name_texel="texel_${nombre_texel+3}"> <!--texel4-->
			<origin xyz="${(texel_length*0.5)} ${rows_origin} ${depth-(texel_depth*0.5)}" rpy="0 0 0" />
		</xacro:texel_collision>
	 	<xacro:texel_collision name_texel="texel_${nombre_texel+4}"> <!--texel5-->
			<origin xyz="${(texel_length*1.5)} ${rows_origin} ${depth-(texel_depth*0.5)}" rpy="0 0 0" />
		</xacro:texel_collision>		
	 	<xacro:texel_collision name_texel="texel_${nombre_texel+5}"> <!--texel6-->
			<origin xyz="${(texel_length*2.5)} ${rows_origin} ${depth-(texel_depth*0.5)}" rpy="0 0 0" />
		</xacro:texel_collision>
	</xacro:macro>


  <!-- Body of sensor -->
  <link name="weiss">

    <inertial>
      <origin xyz="0 0 ${depth/2}" rpy="0 0 0"/>
      <mass value="${mass}"/>
      <inertia
				ixx="${0.083*mass*(width*width + depth*depth)}" ixy="0.0" ixz="0.0"
				iyy="${0.083*mass*(length*length + depth*depth)}" iyz="0.0"
				izz="${0.083*mass*(length*length + width*width)}"/>
    </inertial>  
  
   <collision><!-- name="base_sensor" even the first collision to put-->
      <origin xyz="0 0 ${(depth-texel_depth)/2}" rpy="0 0 0"/>
      <geometry>
				<box size="${length} ${width}  ${depth - texel_depth}"/>
      </geometry>
    </collision>
    
    <!--the 14 rows-->
		<xacro:texel_rows nombre_texel="1" rows_origin="${(texel_width*6.5)}"/>
	  <xacro:texel_rows nombre_texel="7" rows_origin="${(texel_width*5.5)}"/>
 		<xacro:texel_rows nombre_texel="13" rows_origin="${(texel_width*4.5)}"/>
		<xacro:texel_rows nombre_texel="19" rows_origin="${(texel_width*3.5)}"/>
		<xacro:texel_rows nombre_texel="25" rows_origin="${(texel_width*2.5)}"/>
		<xacro:texel_rows nombre_texel="31" rows_origin="${(texel_width*1.5)}"/>
 		<xacro:texel_rows nombre_texel="37" rows_origin="${(texel_width*0.5)}"/>
		<xacro:texel_rows nombre_texel="43" rows_origin="${-(texel_width*0.5)}"/>
		<xacro:texel_rows nombre_texel="49" rows_origin="${-(texel_width*1.5)}"/>
		<xacro:texel_rows nombre_texel="55" rows_origin="${-(texel_width*2.5)}"/>
 		<xacro:texel_rows nombre_texel="61" rows_origin="${-(texel_width*3.5)}"/>
		<xacro:texel_rows nombre_texel="67" rows_origin="${-(texel_width*4.5)}"/>
		<xacro:texel_rows nombre_texel="73" rows_origin="${-(texel_width*5.5)}"/>
		<xacro:texel_rows nombre_texel="79" rows_origin="${-(texel_width*6.5)}"/>


     <visual name="texel_visual">
      <origin xyz="0 0 0.0090" rpy="0 0 0"/>
      <!--<origin xyz="0 0 ${depth/2}" rpy="0 0 0"/>-->
      <geometry>
	      <!--<box size="${length} ${width}  ${depth}"/>-->
				<mesh filename="package://sr_description/hand/model/tactile_sensor/wts0614-34.dae" scale="0.000867066 0.000946 0.001"/>
      </geometry>
      <material name="blue"/>
    </visual>  

  </link>

</robot>
